module gitlab.com/timiashkinadar/go-kata/module2/optimization/json

go 1.18

require (
	github.com/json-iterator/go v1.1.12 // indirect
	github.com/modern-go/concurrent v0.0.0-20180228061459-e0a39a4cb421 // indirect
	github.com/modern-go/reflect2 v1.0.2 // indirect
)
